Proyecto_02/uP_tb.vcd
$date
	Sun Nov 22 01:11:01 2020
$end
$version
	Icarus Verilog
$end
$timescale
	1ps
$end
$scope module testbench $end
$var wire 4 ! data_bus [3:0] $end
$var wire 1 " z_flag $end
$var wire 8 # program_byte [7:0] $end
$var wire 1 $ phase $end
$var wire 4 % oprnd [3:0] $end
$var wire 4 & instr [3:0] $end
$var wire 1 ' c_flag $end
$var wire 12 ( address_RAM [11:0] $end
$var wire 4 ) accu [3:0] $end
$var wire 12 * PC [11:0] $end
$var wire 4 + FF_out [3:0] $end
$var reg 1 , clock $end
$var reg 4 - pushbuttons [3:0] $end
$var reg 1 . reset $end
$var integer 32 / immediateDelay [31:0] $end
$var integer 32 0 jumpDelay [31:0] $end
$var integer 32 1 memoryDelay [31:0] $end
$var integer 32 2 nota [31:0] $end
$scope module uPmodule $end
$var wire 1 , clock $end
$var wire 4 3 data_bus [3:0] $end
$var wire 4 4 pushbuttons [3:0] $end
$var wire 1 . reset $end
$var wire 1 " z_flag $end
$var wire 8 5 program_byte [7:0] $end
$var wire 1 $ phase $end
$var wire 13 6 out_decoder [12:0] $end
$var wire 4 7 oprnd [3:0] $end
$var wire 4 8 instr [3:0] $end
$var wire 7 9 in_decoder [6:0] $end
$var wire 1 ' c_flag $end
$var wire 12 : address_RAM [11:0] $end
$var wire 4 ; accu [3:0] $end
$var wire 1 < Ze $end
$var wire 12 = PC [11:0] $end
$var wire 4 > FF_out [3:0] $end
$var wire 1 ? C $end
$var wire 4 @ ALU_out [3:0] $end
$scope module ALU $end
$var wire 4 A B [3:0] $end
$var wire 3 B command [2:0] $end
$var wire 1 < zero $end
$var wire 4 C result [3:0] $end
$var wire 1 ? carry $end
$var wire 4 D A [3:0] $end
$var reg 5 E q [4:0] $end
$upscope $end
$scope module Accumulator $end
$var wire 4 F D [3:0] $end
$var wire 1 G En $end
$var wire 1 , clk $end
$var wire 1 . reset $end
$var wire 4 H Q [3:0] $end
$scope module U1 $end
$var wire 2 I D2 [1:0] $end
$var wire 1 G En $end
$var wire 1 , clk $end
$var wire 1 . reset $end
$var wire 2 J Q2 [1:0] $end
$scope module U1 $end
$var wire 1 K D $end
$var wire 1 G En $end
$var wire 1 , clk $end
$var wire 1 . reset $end
$var reg 1 L Q $end
$upscope $end
$scope module U2 $end
$var wire 1 M D $end
$var wire 1 G En $end
$var wire 1 , clk $end
$var wire 1 . reset $end
$var reg 1 N Q $end
$upscope $end
$upscope $end
$scope module U2 $end
$var wire 2 O D2 [1:0] $end
$var wire 1 G En $end
$var wire 1 , clk $end
$var wire 1 . reset $end
$var wire 2 P Q2 [1:0] $end
$scope module U1 $end
$var wire 1 Q D $end
$var wire 1 G En $end
$var wire 1 , clk $end
$var wire 1 . reset $end
$var reg 1 R Q $end
$upscope $end
$scope module U2 $end
$var wire 1 S D $end
$var wire 1 G En $end
$var wire 1 , clk $end
$var wire 1 . reset $end
$var reg 1 T Q $end
$upscope $end
$upscope $end
$upscope $end
$scope module BusALU $end
$var wire 1 U En $end
$var wire 4 V entradas [3:0] $end
$var wire 4 W salidas [3:0] $end
$upscope $end
$scope module BusFetch $end
$var wire 1 X En $end
$var wire 4 Y salidas [3:0] $end
$var wire 4 Z entradas [3:0] $end
$upscope $end
$scope module BusIn $end
$var wire 1 [ En $end
$var wire 4 \ entradas [3:0] $end
$var wire 4 ] salidas [3:0] $end
$upscope $end
$scope module Decoder $end
$var wire 7 ^ in [6:0] $end
$var wire 13 _ outD [12:0] $end
$var reg 13 ` out [12:0] $end
$upscope $end
$scope module Fetch $end
$var wire 1 , Clk $end
$var wire 1 a En2 $end
$var wire 1 . reset $end
$var wire 4 b Q2 [3:0] $end
$var wire 4 c Q1 [3:0] $end
$var wire 8 d D4 [7:0] $end
$scope module U1 $end
$var wire 1 , Clk $end
$var wire 4 e D [3:0] $end
$var wire 1 a En $end
$var wire 1 . reset $end
$var wire 4 f Q [3:0] $end
$scope module U1 $end
$var wire 2 g D2 [1:0] $end
$var wire 1 a En $end
$var wire 1 , clk $end
$var wire 1 . reset $end
$var wire 2 h Q2 [1:0] $end
$scope module U1 $end
$var wire 1 i D $end
$var wire 1 a En $end
$var wire 1 , clk $end
$var wire 1 . reset $end
$var reg 1 j Q $end
$upscope $end
$scope module U2 $end
$var wire 1 k D $end
$var wire 1 a En $end
$var wire 1 , clk $end
$var wire 1 . reset $end
$var reg 1 l Q $end
$upscope $end
$upscope $end
$scope module U2 $end
$var wire 2 m D2 [1:0] $end
$var wire 1 a En $end
$var wire 1 , clk $end
$var wire 1 . reset $end
$var wire 2 n Q2 [1:0] $end
$scope module U1 $end
$var wire 1 o D $end
$var wire 1 a En $end
$var wire 1 , clk $end
$var wire 1 . reset $end
$var reg 1 p Q $end
$upscope $end
$scope module U2 $end
$var wire 1 q D $end
$var wire 1 a En $end
$var wire 1 , clk $end
$var wire 1 . reset $end
$var reg 1 r Q $end
$upscope $end
$upscope $end
$upscope $end
$scope module U2 $end
$var wire 1 , Clk $end
$var wire 4 s D [3:0] $end
$var wire 1 a En $end
$var wire 1 . reset $end
$var wire 4 t Q [3:0] $end
$scope module U1 $end
$var wire 2 u D2 [1:0] $end
$var wire 1 a En $end
$var wire 1 , clk $end
$var wire 1 . reset $end
$var wire 2 v Q2 [1:0] $end
$scope module U1 $end
$var wire 1 w D $end
$var wire 1 a En $end
$var wire 1 , clk $end
$var wire 1 . reset $end
$var reg 1 x Q $end
$upscope $end
$scope module U2 $end
$var wire 1 y D $end
$var wire 1 a En $end
$var wire 1 , clk $end
$var wire 1 . reset $end
$var reg 1 z Q $end
$upscope $end
$upscope $end
$scope module U2 $end
$var wire 2 { D2 [1:0] $end
$var wire 1 a En $end
$var wire 1 , clk $end
$var wire 1 . reset $end
$var wire 2 | Q2 [1:0] $end
$scope module U1 $end
$var wire 1 } D $end
$var wire 1 a En $end
$var wire 1 , clk $end
$var wire 1 . reset $end
$var reg 1 ~ Q $end
$upscope $end
$scope module U2 $end
$var wire 1 !" D $end
$var wire 1 a En $end
$var wire 1 , clk $end
$var wire 1 . reset $end
$var reg 1 "" Q $end
$upscope $end
$upscope $end
$upscope $end
$upscope $end
$scope module OutputsFFD4 $end
$var wire 1 , Clk $end
$var wire 4 #" D [3:0] $end
$var wire 1 $" En $end
$var wire 1 . reset $end
$var wire 4 %" Q [3:0] $end
$scope module U1 $end
$var wire 2 &" D2 [1:0] $end
$var wire 1 $" En $end
$var wire 1 , clk $end
$var wire 1 . reset $end
$var wire 2 '" Q2 [1:0] $end
$scope module U1 $end
$var wire 1 (" D $end
$var wire 1 $" En $end
$var wire 1 , clk $end
$var wire 1 . reset $end
$var reg 1 )" Q $end
$upscope $end
$scope module U2 $end
$var wire 1 *" D $end
$var wire 1 $" En $end
$var wire 1 , clk $end
$var wire 1 . reset $end
$var reg 1 +" Q $end
$upscope $end
$upscope $end
$scope module U2 $end
$var wire 2 ," D2 [1:0] $end
$var wire 1 $" En $end
$var wire 1 , clk $end
$var wire 1 . reset $end
$var wire 2 -" Q2 [1:0] $end
$scope module U1 $end
$var wire 1 ." D $end
$var wire 1 $" En $end
$var wire 1 , clk $end
$var wire 1 . reset $end
$var reg 1 /" Q $end
$upscope $end
$scope module U2 $end
$var wire 1 0" D $end
$var wire 1 $" En $end
$var wire 1 , clk $end
$var wire 1 . reset $end
$var reg 1 1" Q $end
$upscope $end
$upscope $end
$upscope $end
$scope module Phase $end
$var wire 1 2" EN $end
$var wire 1 , clk $end
$var wire 1 . reset $end
$var wire 1 $ Q $end
$scope module U1 $end
$var wire 1 3" D $end
$var wire 1 2" En $end
$var wire 1 , clk $end
$var wire 1 . reset $end
$var reg 1 $ Q $end
$upscope $end
$upscope $end
$scope module ProgramCounter $end
$var wire 1 , Clk $end
$var wire 1 4" En $end
$var wire 12 5" load [11:0] $end
$var wire 1 6" non $end
$var wire 1 . reset $end
$var reg 12 7" exit [11:0] $end
$upscope $end
$scope module RAMm $end
$var wire 4 8" Data [3:0] $end
$var wire 1 9" En $end
$var wire 12 :" addres [11:0] $end
$var wire 1 ;" write $end
$var reg 4 <" dataout [3:0] $end
$upscope $end
$scope module ROMm $end
$var wire 12 =" addr [11:0] $end
$var wire 8 >" info [7:0] $end
$upscope $end
$scope module flags_carry $end
$var wire 1 < D1 $end
$var wire 1 ? D2 $end
$var wire 1 ?" En $end
$var wire 1 , clock $end
$var wire 1 . reset $end
$var wire 1 " Ze $end
$var wire 1 ' C $end
$scope module U1 $end
$var wire 1 < D $end
$var wire 1 ?" En $end
$var wire 1 , clk $end
$var wire 1 . reset $end
$var reg 1 " Q $end
$upscope $end
$scope module U2 $end
$var wire 1 ? D $end
$var wire 1 ?" En $end
$var wire 1 , clk $end
$var wire 1 . reset $end
$var reg 1 ' Q $end
$upscope $end
$upscope $end
$upscope $end
$upscope $end
$enddefinitions $end
#0
$dumpvars
x?"
bx >"
bx ="
bx <"
x;"
bx :"
x9"
bx 8"
bx 7"
x6"
bx 5"
x4"
x3"
12"
x1"
x0"
x/"
x."
bx -"
bx ,"
x+"
x*"
x)"
x("
bx '"
bx &"
bx %"
x$"
bx #"
x""
x!"
x~
x}
bx |
bx {
xz
xy
xx
xw
bx v
bx u
bx t
bx s
xr
xq
xp
xo
bx n
bx m
xl
xk
xj
xi
bx h
bx g
bx f
bx e
bx d
bx c
bx b
xa
bx `
bx _
bx ^
bx ]
b110 \
x[
bx Z
bx Y
xX
bx W
bx V
xU
xT
xS
xR
xQ
bx P
bx O
xN
xM
xL
xK
bx J
bx I
bx H
xG
bx F
bx E
bx D
bx C
bx B
bx A
bx @
x?
bx >
bx =
x<
bx ;
bx :
bx 9
bx 8
bx 7
bx 6
bx 5
b110 4
bx 3
b0 2
b100010100 1
b1010010000 0
b10000 /
0.
b110 -
0,
bx +
bx *
bx )
bx (
x'
bx &
bx %
x$
bx #
x"
bx !
$end
#2
0("
0*"
0."
00"
b0 &"
b0 ,"
b0 !
b0 3
b0 A
b0 W
b0 Y
b0 ]
b0 #"
b0 8"
0G
0;"
09"
06"
14"
0$"
1U
0[
0X
b0 B
0?"
b1000000001000 6
b1000000001000 _
b1000000001000 `
0K
0M
0Q
0S
1<
1w
1y
1}
1!"
0i
1k
0o
0q
b0 I
b0 O
b11 u
b11 {
b1 g
b0 m
b0 @
b0 C
b0 F
b0 V
0?
13"
1a
b1111 s
b100 e
b0 E
0$
0"
0'
0)"
b0 '"
0+"
0/"
b0 +
b0 >
b0 %"
b0 -"
01"
0j
b0 h
0l
0p
b0 9
b0 ^
b0 &
b0 8
b0 c
b0 f
b0 n
0r
0x
b0 v
0z
0~
b0 %
b0 7
b0 Z
b0 b
b0 t
b0 |
0""
b1001111 (
b1001111 :
b1001111 5"
b1001111 :"
b1001111 #
b1001111 5
b1001111 d
b1001111 >"
b0 *
b0 =
b0 7"
b0 ="
0L
b0 J
0N
0R
b0 )
b0 ;
b0 D
b0 H
b0 P
0T
1.
#3
0.
#5
1K
1M
1Q
1S
0<
b11 I
b11 O
b1111 @
b1111 C
b1111 F
b1111 V
1("
1*"
1."
10"
b1111 E
b11 &"
b11 ,"
b1111 !
b1111 3
b1111 A
b1111 W
b1111 Y
b1111 ]
b1111 #"
b1111 8"
1G
04"
0U
1X
b10 B
1?"
b11010000010 6
b11010000010 _
b11010000010 `
1i
1q
b11 g
b1 m
b1101 e
03"
0a
b11011111 #
b11011111 5
b11011111 d
b11011111 >"
b1 *
b1 =
b1 7"
b1 ="
1""
b11 |
1~
1z
b111111011111 (
b111111011111 :
b111111011111 5"
b111111011111 :"
b1111 %
b1111 7
b1111 Z
b1111 b
b1111 t
b11 v
1x
b100 &
b100 8
b100 c
b100 f
b1 h
1l
b100001 9
b100001 ^
1$
1,
#10
0,
#15
b1111 !
b1111 3
b1111 A
b1111 W
b1111 Y
b1111 ]
b1111 #"
b1111 8"
0G
14"
1U
0X
b0 B
0?"
b1000000001000 6
b1000000001000 _
b1000000001000 `
13"
1a
b100000 9
b100000 ^
0$
1L
b11 J
1N
1R
b1111 )
b1111 ;
b1111 D
b1111 H
b11 P
1T
1,
#16
b1000110 2
#20
0,
#25
04"
1$"
b1001 6
b1001 _
b1001 `
0w
0y
0}
0i
b0 u
b1 {
b1 g
b1 s
b101 e
03"
0a
b111101010001 (
b111101010001 :
b111101010001 5"
b111101010001 :"
b1010001 #
b1010001 5
b1010001 d
b1010001 >"
b10 *
b10 =
b10 7"
b10 ="
b1 n
1r
b1101 &
b1101 8
b1101 c
b1101 f
b11 h
1j
b1101001 9
b1101001 ^
1$
1,
#30
0,
#35
14"
0$"
b1000000001000 6
b1000000001000 _
b1000000001000 `
13"
1a
b1101000 9
b1101000 ^
0$
1)"
b11 '"
1+"
1/"
b1111 +
b1111 >
b1111 %"
b11 -"
11"
1,
#36
b1100111 2
#40
0,
#45
0K
0S
b1 I
b10 O
b110 @
b110 C
b110 F
b110 V
0("
00"
b110 E
b1 &"
b10 ,"
b110 !
b110 3
b110 A
b110 W
b110 Y
b110 ]
b110 #"
b110 8"
1G
04"
0U
1[
b10 B
1?"
b11010000100 6
b11010000100 _
b11010000100 `
0!"
0q
b0 {
b0 m
b0 s
b100 e
03"
0a
b1000000 #
b1000000 5
b1000000 d
b1000000 >"
b11 *
b11 =
b11 7"
b11 ="
b1 |
0~
0z
b101000000 (
b101000000 :
b101000000 5"
b101000000 :"
b1 %
b1 7
b1 Z
b1 b
b1 t
b0 v
0x
b101 &
b101 8
b101 c
b101 f
b1 h
0j
b101001 9
b101001 ^
1$
1,
#50
0,
#55
b110 !
b110 3
b110 A
b110 W
b110 Y
b110 ]
b110 #"
b110 8"
0G
14"
1U
0[
b0 B
0?"
b1000000001000 6
b1000000001000 _
b1000000001000 `
13"
1a
b101000 9
b101000 ^
0$
b1 J
0L
b110 )
b110 ;
b110 D
b110 H
b10 P
0T
1,
#56
b10001000 2
#60
0,
#65
1<
0M
0Q
b0 I
b0 O
b0 @
b0 C
b0 F
b0 V
0*"
0."
b0 E
b0 &"
b0 ,"
b0 !
b0 3
b0 A
b0 W
b0 Y
b0 ]
b0 #"
b0 8"
1G
04"
0U
1X
b10 B
1?"
b11010000010 6
b11010000010 _
b11010000010 `
1w
1y
1}
1!"
b11 u
b11 {
b1111 s
03"
0a
b1001111 #
b1001111 5
b1001111 d
b1001111 >"
b100 *
b100 =
b100 7"
b100 ="
b1001111 (
b1001111 :
b1001111 5"
b1001111 :"
b0 %
b0 7
b0 Z
b0 b
b0 t
b0 |
0""
b100 &
b100 8
b100 c
b100 f
b0 n
0r
b100001 9
b100001 ^
1$
1,
#70
0,
#75
b0 !
b0 3
b0 A
b0 W
b0 Y
b0 ]
b0 #"
b0 8"
0G
14"
1U
0X
b0 B
0?"
b1000000001000 6
b1000000001000 _
b1000000001000 `
13"
1a
0$
b100010 9
b100010 ^
1"
b0 J
0N
b0 )
b0 ;
b0 D
b0 H
b0 P
0R
1,
#80
0,
#85
1K
1M
1Q
1S
0<
b11 I
b11 O
b1111 @
b1111 C
b1111 F
b1111 V
1("
1*"
1."
10"
b1111 E
b11 &"
b11 ,"
b1111 !
b1111 3
b1111 A
b1111 W
b1111 Y
b1111 ]
b1111 #"
b1111 8"
1G
04"
0U
1X
b10 B
1?"
b11010000010 6
b11010000010 _
b11010000010 `
0y
0!"
1i
0k
1o
b10 u
b10 {
b10 g
b10 m
b1010 s
b1010 e
03"
0a
b10101010 #
b10101010 5
b10101010 d
b10101010 >"
b101 *
b101 =
b101 7"
b101 ="
1""
b11 |
1~
1z
b111110101010 (
b111110101010 :
b111110101010 5"
b111110101010 :"
b1111 %
b1111 7
b1111 Z
b1111 b
b1111 t
b11 v
1x
b100011 9
b100011 ^
1$
1,
#90
0,
#95
b1111 !
b1111 3
b1111 A
b1111 W
b1111 Y
b1111 ]
b1111 #"
b1111 8"
0G
14"
1U
0X
b0 B
0?"
b1000000001000 6
b1000000001000 _
b1000000001000 `
13"
1a
0$
b100000 9
b100000 ^
0"
1L
b11 J
1N
1R
b1111 )
b1111 ;
b1111 D
b1111 H
b11 P
1T
1,
#100
0,
#105
0M
0Q
b10 I
1S
0*"
00"
b1 O
b10 &"
b10 ,"
b1001 @
b1001 C
b1001 F
b1001 V
1?
b1010 !
b1010 3
b1010 A
b1010 W
b1010 Y
b1010 ]
b1010 #"
b1010 8"
b11001 E
1G
04"
0U
1X
b11 B
1?"
b11011000010 6
b11011000010 _
b11011000010 `
0}
0i
b0 {
b0 g
b1000 s
b10 e
03"
0a
b101000 #
b101000 5
b101000 d
b101000 >"
b110 *
b110 =
b110 7"
b110 ="
b10 |
0""
b101000101000 (
b101000101000 :
b101000101000 5"
b101000101000 :"
b1010 %
b1010 7
b1010 Z
b1010 b
b1010 t
b10 v
0z
b10 n
1p
0l
b1010 &
b1010 8
b1010 c
b1010 f
b10 h
1j
b1010001 9
b1010001 ^
1$
1,
#110
0,
#115
0."
1("
10"
b10 &"
b1 ,"
0?
b1001 !
b1001 3
b1001 A
b1001 W
b1001 Y
b1001 ]
b1001 #"
b1001 8"
0G
14"
1U
0X
b0 B
0?"
b1000000001000 6
b1000000001000 _
b1000000001000 `
1K
0Q
b10 I
b1 O
b1001 @
b1001 C
b1001 F
b1001 V
13"
1a
b1001 E
0$
b1010100 9
b1010100 ^
1'
b10 J
0N
b1001 )
b1001 ;
b1001 D
b1001 H
b1 P
0R
1,
#116
b10101001 2
#120
0,
#125
0K
1S
00"
b0 I
b1 O
b0 ,"
b1 @
b1 C
b1 F
b1 V
b1000 !
b1000 3
b1000 A
b1000 W
b1000 Y
b1000 ]
b1000 #"
b1000 8"
b1 E
04"
0U
1X
b1 B
1?"
b1001000010 6
b1001000010 _
b1001000010 `
1}
1k
0o
b10 {
b1 g
b0 m
b1010 s
b100 e
03"
0a
b1001010 #
b1001010 5
b1001010 d
b1001010 >"
b111 *
b111 =
b111 7"
b111 ="
b100001001010 (
b100001001010 :
b100001001010 5"
b100001001010 :"
b1000 %
b1000 7
b1000 Z
b1000 b
b1000 t
b0 |
0~
b10 &
b10 8
b10 c
b10 f
b0 h
0j
b10101 9
b10101 ^
1$
1,
#130
0,
#135
1K
1("
10"
b10 I
b10 &"
b1 ,"
b1001 @
b1001 C
b1001 F
b1001 V
b1001 !
b1001 3
b1001 A
b1001 W
b1001 Y
b1001 ]
b1001 #"
b1001 8"
b1001 E
14"
1U
0X
b0 B
0?"
b1000000001000 6
b1000000001000 _
b1000000001000 `
13"
1a
0$
b10000 9
b10000 ^
0'
1,
#136
b11001010 2
#140
0,
#145
1Q
0S
b10 O
b1010 @
b1010 C
b1010 F
b1010 V
1."
00"
b1010 E
b10 ,"
b1010 !
b1010 3
b1010 A
b1010 W
b1010 Y
b1010 ]
b1010 #"
b1010 8"
1G
04"
0U
1X
b10 B
1?"
b11010000010 6
b11010000010 _
b11010000010 `
1y
0}
0k
1o
b11 u
b0 {
b0 g
b10 m
b1100 s
b10 e
03"
0a
b101100 #
b101100 5
b101100 d
b101100 >"
b1000 *
b1000 =
b1000 7"
b1000 ="
b101000101100 (
b101000101100 :
b101000101100 5"
b101000101100 :"
b1010 %
b1010 7
b1010 Z
b1010 b
b1010 t
b10 |
1~
b0 n
0p
b100 &
b100 8
b100 c
b100 f
b1 h
1l
b100001 9
b100001 ^
1$
1,
#150
0,
#155
b1010 !
b1010 3
b1010 A
b1010 W
b1010 Y
b1010 ]
b1010 #"
b1010 8"
0G
14"
1U
0X
b0 B
0?"
b1000000001000 6
b1000000001000 _
b1000000001000 `
13"
1a
b100000 9
b100000 ^
0$
1R
b1010 )
b1010 ;
b1010 D
b1010 H
b10 P
0T
1,
#160
0,
#165
1M
1K
1Q
1?
1*"
0."
b11 I
b10 O
b11 &"
b0 ,"
b1110 @
b1110 C
b1110 F
b1110 V
b1100 !
b1100 3
b1100 A
b1100 W
b1100 Y
b1100 ]
b1100 #"
b1100 8"
b11110 E
04"
0U
1X
b1 B
1?"
b1001000010 6
b1001000010 _
b1001000010 `
0w
0y
1!"
1i
b0 u
b1 {
b10 g
b1 s
b1010 e
03"
0a
b10100001 #
b10100001 5
b10100001 d
b10100001 >"
b1001 *
b1001 =
b1001 7"
b1001 ="
b0 |
0~
b110010100001 (
b110010100001 :
b110010100001 5"
b110010100001 :"
b1100 %
b1100 7
b1100 Z
b1100 b
b1100 t
b11 v
1z
b10 n
1p
b10 &
b10 8
b10 c
b10 f
b0 h
0l
b10001 9
b10001 ^
1$
1,
#170
0,
#175
0*"
0M
b10 &"
1."
b10 I
b10 ,"
b1010 @
b1010 C
b1010 F
b1010 V
0?
b1010 !
b1010 3
b1010 A
b1010 W
b1010 Y
b1010 ]
b1010 #"
b1010 8"
b1010 E
14"
1U
0X
b0 B
0?"
b1000000001000 6
b1000000001000 _
b1000000001000 `
13"
1a
0$
b10100 9
b10100 ^
1'
1,
#176
b11101011 2
#180
0,
#185
1S
1K
0M
1Q
0("
0."
10"
b10 I
b11 O
b0 &"
b1 ,"
b1011 @
b1011 C
b1011 F
b1011 V
0?
b1 !
b1 3
b1 A
b1 W
b1 Y
b1 ]
b1 #"
b1 8"
b1011 E
1G
04"
0U
1X
b11 B
1?"
b11011000010 6
b11011000010 _
b11011000010 `
1w
1}
1k
b10 u
b11 {
b11 g
b1011 s
b1110 e
03"
0a
b11101011 #
b11101011 5
b11101011 d
b11101011 >"
b1010 *
b1010 =
b1010 7"
b1010 ="
b1 |
1""
0z
b111101011 (
b111101011 :
b111101011 5"
b111101011 :"
b1 %
b1 7
b1 Z
b1 b
b1 t
b0 v
0x
b1010 &
b1010 8
b1010 c
b1010 f
b10 h
1j
b1010101 9
b1010101 ^
1$
1,
#190
0,
#195
1."
1("
0*"
10"
b10 &"
b11 ,"
b1011 !
b1011 3
b1011 A
b1011 W
b1011 Y
b1011 ]
b1011 #"
b1011 8"
0G
14"
1U
0X
b0 B
0?"
b1000000001000 6
b1000000001000 _
b1000000001000 `
0M
1Q
1S
b10 I
b11 O
b1011 @
b1011 C
b1011 F
b1011 V
13"
1a
b1011 E
0$
b1010000 9
b1010000 ^
0'
b1011 )
b1011 ;
b1011 D
b1011 H
b11 P
1T
1,
#196
b100001100 2
#200
0,
#205
0K
1M
0Q
0S
b1 I
b0 O
b100 @
b100 C
b100 F
b100 V
b100 E
1G
04"
0U
1X
b100 B
1?"
b11100000010 6
b11100000010 _
b11100000010 `
0w
0}
0!"
0o
1q
b0 u
b0 {
b1 m
b0 s
b1101 e
03"
0a
b11010000 #
b11010000 5
b11010000 d
b11010000 >"
b1011 *
b1011 =
b1011 7"
b1011 ="
b11 |
1~
b101111010000 (
b101111010000 :
b101111010000 5"
b101111010000 :"
b1011 %
b1011 7
b1011 Z
b1011 b
b1011 t
b10 v
1x
b1110 &
b1110 8
b1110 c
b1110 f
b11 h
1l
b1110001 9
b1110001 ^
1$
1,
#210
0,
#215
0("
0."
00"
b0 ,"
1*"
b1 &"
b100 !
b100 3
b100 A
b100 W
b100 Y
b100 ]
b100 #"
b100 8"
0G
14"
1U
0X
b0 B
0?"
b1000000001000 6
b1000000001000 _
b1000000001000 `
0K
0Q
0S
b1 I
b0 O
b100 @
b100 C
b100 F
b100 V
13"
1a
b100 E
b1110000 9
b1110000 ^
0$
0L
b1 J
1N
0R
b100 )
b100 ;
b100 D
b100 H
b0 P
0T
1,
#216
b101001110 2
#220
0,
#225
04"
1$"
b1001 6
b1001 _
b1001 `
0i
b1 g
b101 e
03"
0a
b1010000 #
b1010000 5
b1010000 d
b1010000 >"
b1100 *
b1100 =
b1100 7"
b1100 ="
0""
b0 |
0~
b1010000 (
b1010000 :
b1010000 5"
b1010000 :"
b0 %
b0 7
b0 Z
b0 b
b0 t
b0 v
0x
1r
b1101 &
b1101 8
b1101 c
b1101 f
b1 n
0p
b1101001 9
b1101001 ^
1$
1,
#230
0,
#235
14"
0$"
b1000000001000 6
b1000000001000 _
b1000000001000 `
13"
1a
b1101000 9
b1101000 ^
0$
b1 '"
0)"
0/"
b100 +
b100 >
b100 %"
b0 -"
01"
1,
#236
b1110 -
b1110 4
b1110 \
b101101111 2
#240
0,
#245
1K
1Q
b11 I
b10 O
b1110 @
b1110 C
b1110 F
b1110 V
1("
1."
b1110 E
b11 &"
b10 ,"
b1110 !
b1110 3
b1110 A
b1110 W
b1110 Y
b1110 ]
b1110 #"
b1110 8"
1G
04"
0U
1[
b10 B
1?"
b11010000100 6
b11010000100 _
b11010000100 `
1o
b11 m
b111 e
03"
0a
b1110000 (
b1110000 :
b1110000 5"
b1110000 :"
b1110000 #
b1110000 5
b1110000 d
b1110000 >"
b1101 *
b1101 =
b1101 7"
b1101 ="
b101 &
b101 8
b101 c
b101 f
b1 h
0j
b101001 9
b101001 ^
1$
1,
#250
0,
#255
b1110 !
b1110 3
b1110 A
b1110 W
b1110 Y
b1110 ]
b1110 #"
b1110 8"
0G
14"
1U
0[
b0 B
0?"
b1000000001000 6
b1000000001000 _
b1000000001000 `
13"
1a
b101000 9
b101000 ^
0$
b11 J
1L
b1110 )
b1110 ;
b1110 D
b1110 H
b10 P
1R
1,
#256
b110010000 2
#260
0,
#265
1("
1*"
1."
00"
b11 &"
b10 ,"
b1110 !
b1110 3
b1110 A
b1110 W
b1110 Y
b1110 ]
b1110 #"
b1110 8"
1;"
19"
b1000000111000 6
b1000000111000 _
b1000000111000 `
0k
0o
0q
b0 g
b0 m
b0 e
03"
0a
b0 (
b0 :
b0 5"
b0 :"
b0 #
b0 5
b0 d
b0 >"
b1110 *
b1110 =
b1110 7"
b1110 ="
b111 &
b111 8
b111 c
b111 f
b11 n
1p
b111001 9
b111001 ^
1$
1,
#270
0,
#275
0;"
09"
b1000000001000 6
b1000000001000 _
b1000000001000 `
1w
1y
1}
1!"
1k
b11 u
b11 {
b1 g
13"
1a
b1111 s
b100 e
b111000 9
b111000 ^
0$
b1001111 (
b1001111 :
b1001111 5"
b1001111 :"
b1001111 #
b1001111 5
b1001111 d
b1001111 >"
b1111 *
b1111 =
b1111 7"
b1111 ="
1,
#280
0,
#285
1S
b11 O
b1111 @
b1111 C
b1111 F
b1111 V
10"
b1111 E
b11 ,"
b1111 !
b1111 3
b1111 A
b1111 W
b1111 Y
b1111 ]
b1111 #"
b1111 8"
1G
04"
0U
1X
b10 B
1?"
b11010000010 6
b11010000010 _
b11010000010 `
0w
0y
0}
1o
1q
b0 u
b1 {
b11 m
b1 s
b111 e
03"
0a
b1110001 #
b1110001 5
b1110001 d
b1110001 >"
b10000 *
b10000 =
b10000 7"
b10000 ="
1""
b11 |
1~
1z
b111101110001 (
b111101110001 :
b111101110001 5"
b111101110001 :"
b1111 %
b1111 7
b1111 Z
b1111 b
b1111 t
b11 v
1x
0r
b100 &
b100 8
b100 c
b100 f
b0 n
0p
b100001 9
b100001 ^
1$
1,
#290
0,
#295
b1111 !
b1111 3
b1111 A
b1111 W
b1111 Y
b1111 ]
b1111 #"
b1111 8"
0G
14"
1U
0X
b0 B
0?"
b1000000001000 6
b1000000001000 _
b1000000001000 `
13"
1a
b100000 9
b100000 ^
0$
b1111 )
b1111 ;
b1111 D
b1111 H
b11 P
1T
1,
#300
0,
#305
1("
1*"
1."
10"
b11 &"
b11 ,"
b1111 !
b1111 3
b1111 A
b1111 W
b1111 Y
b1111 ]
b1111 #"
b1111 8"
1;"
19"
b1000000111000 6
b1000000111000 _
b1000000111000 `
0k
0o
b0 g
b1 m
b1 e
03"
0a
b10001 #
b10001 5
b10001 d
b10001 >"
b10001 *
b10001 =
b10001 7"
b10001 ="
b1 |
0~
0z
b100010001 (
b100010001 :
b100010001 5"
b100010001 :"
b1 %
b1 7
b1 Z
b1 b
b1 t
b0 v
0x
1r
b111 &
b111 8
b111 c
b111 f
b11 n
1p
b111001 9
b111001 ^
1$
1,
#310
0,
#315
0;"
09"
b1000000001000 6
b1000000001000 _
b1000000001000 `
1w
1}
0!"
1k
0q
b10 u
b10 {
b1 g
b0 m
13"
1a
b1010 s
b100 e
b111000 9
b111000 ^
0$
b101001010 (
b101001010 :
b101001010 5"
b101001010 :"
b1001010 #
b1001010 5
b1001010 d
b1001010 >"
b10010 *
b10010 =
b10010 7"
b10010 ="
1,
#320
0,
#325
0M
0S
b10 I
b10 O
b1010 @
b1010 C
b1010 F
b1010 V
0*"
00"
b1010 E
b10 &"
b10 ,"
b1010 !
b1010 3
b1010 A
b1010 W
b1010 Y
b1010 ]
b1010 #"
b1010 8"
1G
04"
0U
1X
b10 B
1?"
b11010000010 6
b11010000010 _
b11010000010 `
0w
1o
1q
b0 u
b11 m
b10 s
b111 e
03"
0a
b1110010 #
b1110010 5
b1110010 d
b1110010 >"
b10011 *
b10011 =
b10011 7"
b10011 ="
0""
b10 |
1~
b101001110010 (
b101001110010 :
b101001110010 5"
b101001110010 :"
b1010 %
b1010 7
b1010 Z
b1010 b
b1010 t
b10 v
1x
0r
b100 &
b100 8
b100 c
b100 f
b0 n
0p
b100001 9
b100001 ^
1$
1,
#330
0,
#335
b1010 !
b1010 3
b1010 A
b1010 W
b1010 Y
b1010 ]
b1010 #"
b1010 8"
0G
14"
1U
0X
b0 B
0?"
b1000000001000 6
b1000000001000 _
b1000000001000 `
13"
1a
b100000 9
b100000 ^
0$
b10 J
0N
b1010 )
b1010 ;
b1010 D
b1010 H
b10 P
0T
1,
#340
0,
